<svg xmlns="http://www.w3.org/2000/svg" width="1440" height="2560" viewBox="0 0 1440 2560">
    <defs>
        <linearGradient id="a" x1="50%" x2="50%" y1=".556%" y2="42.019%">
            <stop offset="0%" stop-color="#FF929F"/>
            <stop offset="100%" stop-color="#FFDC90"/>
        </linearGradient>
        <linearGradient id="b" x1="50%" x2="50%" y1="5.604%" y2="76.768%">
            <stop offset="0%" stop-color="#0B7B76"/>
            <stop offset="100%" stop-color="#026860"/>
        </linearGradient>
        <linearGradient id="c" x1="50%" x2="50%" y1="62.936%" y2="100%">
            <stop offset="0%" stop-color="#058D82"/>
            <stop offset="100%" stop-color="#024F4B"/>
        </linearGradient>
    </defs>
    <g fill="none" fill-rule="nonzero">
        <path fill="url(#a)" d="M71 2611h4643V0H71z" transform="translate(-1450)"/>
        <path fill="#FFC29E" d="M1967.412 1067.193s-81.22-60.43-102.975-79.895c-21.755-19.466-43.51-40.965-53.663-52.586-10.153-11.62-10.153-33.12-20.305-27.31-10.153 5.811-33.358 15.69-50.763 15.69-17.404 0-26.106 0-40.61-7.845-14.503-7.844-31.907-13.655-40.61 2.034 0 0-1.45 2.033-27.556 7.844-26.107 5.81-30.458 17.431-44.961 17.431-14.504 0-37.71-5.81-43.511-7.844-5.802-2.034-18.855-3.777-44.961 5.81-26.107 9.588-58.014-2.033-75.419-13.654-17.404-11.621-42.06-42.708-73.968-48.518-31.908-5.81-60.915-15.689-71.067-19.465-10.153-3.777-62.366-11.622-97.174-2.034-34.809 9.587-102.975 42.707-114.578 46.775-11.603 4.067-53.663 23.242-76.87 25.276-23.205 2.033-95.723 2.033-121.83 0-26.106-2.034-66.715-13.655-82.67-13.655-15.953 0-34.808 11.62-50.762 2.034-15.954-9.588-11.603-31.087-34.808-31.087-23.206 0-37.71 27.31-60.915 27.31-23.206 0-29.007-21.5-46.412-21.5-17.404 0-50.762 15.69-58.014 15.69-7.252 0-31.908-3.778-36.259-11.622-4.351-7.844-10.152 9.587-18.855 2.034-8.702-7.554-20.305 5.81-36.258 0-15.954-5.81 2.9-15.689-46.412-7.845-49.312 7.845-76.869 3.777-84.12 2.034-7.252-2.034-42.06-9.587-55.114-13.655-13.053-4.067-187.096-48.518-201.6-48.518-14.503 0-81.22-13.654-101.524-13.654-20.305 0-97.174-50.552-118.93-54.62-21.755-4.067-84.12-19.465-94.273-33.12-10.152-13.655-73.968-11.62-88.472-11.62-14.503 0-66.716 17.43-85.57 27.309-18.855 9.587-72.518 35.154-95.724 40.964-23.206 5.81-72.518 52.586-92.823 58.396-20.305 5.81-76.869 50.552-100.074 50.552-23.206 0-23.206 21.499-55.114 25.276-31.908 3.777-43.51 11.62-69.617 21.499-26.106 9.587-72.518 27.31-94.273 27.31-21.756 0 8.702-19.466-82.67 3.776-91.373 23.242-72.518 36.897-110.228 46.775-37.709 9.588-30.457 91.516-47.861 99.36-17.405 7.845 922.426 155.723 1064.561 142.068 142.135-13.654 642.508 35.154 709.224 25.276 66.717-9.587 693.27-62.173 736.781-70.017 43.51-7.844 562.738-64.206 593.196-70.017 30.457-6.391 216.103 7.263 46.411-78.442z"/>
        <path fill="#FFA98D" d="M2935.683 1044.93c-5.224-2.908-101.585-61.092-110.293-64-8.707-2.91-31.927 5.818-52.244 0-20.317-5.82-65.305-29.092-94.329-29.092h-60.951c-7.256 0-21.768-23.274-55.147-7.273-33.378 16-42.085-17.455-59.5-23.274-17.414-5.818-53.695-55.274-63.853-59.637-10.159-4.364-27.573-24.728-44.988-16-17.415 8.727-62.403-4.364-94.33-2.037-31.926 2.327-45.858 1.745-55.146-.291-9.288-2.036-15.092 6.11-23.22 6.691-8.126.582-23.8 13.964-31.346 13.964-7.546 0-56.597 2.91-60.37 1.455-3.774-1.455-3.483-5.237-15.964 0-12.48 5.236-43.536 3.49-52.824.581-9.288-2.909-15.093-10.182-21.769-12.218-6.675-2.036-15.963 18.037-38.312 18.037-22.349 0-38.312-13.964-52.824-13.964s-22.64 5.818-33.378 7.273c-10.74 1.454-16.834 23.273-31.347 23.855-14.512.582-13.931 6.4-29.604 12.218-15.674 5.819-38.603 17.164-47.31 17.164-8.708 0-22.64 15.128-71.11 15.128s-46.44-7.273-69.078-5.237c-22.64 2.037-35.41 3.491-37.732 7.273-2.322 3.782-9.288 9.019-23.8 8.146-14.512-.873-47.89-2.036-57.468 0-9.578 2.036-15.964 7.855-29.605 7.273-13.642-.582-31.927-1.455-37.732 3.49-5.805 4.946-8.707 9.31-23.8 9.31-15.092 0-20.897 15.128-29.024 17.455-8.127 2.327-17.995 1.455-23.8 4.364s-23.8 10.182-30.476 9.31c-6.675-.874-36.28 14.545-50.793 15.127-14.512.582-16.834 9.31-26.702 11.055-9.868 1.745-5.224 8.145-18.866 8.727-13.641.582-36.28-9.018-44.117-13.964-7.836-4.945-28.444-10.764-33.378-9.31-4.934 1.455-19.737 2.62-29.024 9.31-9.288 6.691-35.41 10.182-42.086 12.51-6.675 2.327-20.317 10.182-26.702 10.182-6.386 0-12.19 6.4-20.898 5.818-8.707-.582-26.702 4.364-34.83 4.364-8.126 0-26.702-5.237-32.506-5.237-5.805 0-15.093-8.727-32.508-8.727-17.414 0-23.8-8.728-43.536-5.819-19.737 2.91-30.476 14.546-44.988 14.546s-20.898 11.055-35.41 5.237c-14.512-5.819-37.732-5.237-42.956-8.146-5.224-2.91-13.932-8.727-26.702-13.091-12.771-4.364-15.093-18.91-30.476-21.819-15.383-2.91-51.664-5.818-63.273-5.818-11.61 0-33.378 6.4-44.988 6.4s-34.83 9.891-49.342 9.31c-14.512-.583-27.573 1.454-36.28 8.145-8.707 6.69-50.793 20.946-64.434 20.946-13.642 0-32.508 19.2-41.215 19.782-8.707.582-38.312 2.327-52.244 0-13.932-2.327-52.824-3.49-64.434-4.364-11.61-.872-36.28-6.4-52.244-2.327-15.963 4.073-40.634 11.055-52.824 13.091-12.19 2.037-81.85 22.692-95.2 25.6-13.352 2.91-30.476 7.274-52.825 9.31-22.349 2.037-53.695 0-66.756 10.182s-54.566 26.183-66.756 32c-12.19 5.82-68.207 26.183-89.395 30.547-21.188 4.364-67.337 12.219-83.59 16.873-16.254 4.655-36.281 5.237-54.566 8.728-18.286 3.49-15.964-.582-56.598 11.054-40.634 11.637-93.168 29.965-114.356 32.001-21.188 2.037-13.642 13.673 0 31.128 13.641 17.455 69.658 29.092 104.488 29.965 34.829.872 814.715 2.909 874.505 10.763 60.08 7.855 512.861 7.855 630.7 7.855 117.84 0 711.969 11.637 777.854 0 65.886-11.636 508.798-25.31 574.683-32.873 65.886-7.564 290.244 13.673 390.96-25.31 100.714-38.692 174.146-42.765 195.333-48.583 21.188-5.818 44.408-58.183 19.447-61.965-25.252-3.782-96.652-91.057-127.708-95.13-30.766-4.072-44.697-9.6-59.79-18.036z"/>
        <path fill="#FB9F79" d="M3264 989.485s-16.536 2.904-24.079 5.807c-7.832 2.903-14.505-2.032-29.01 0s-41.485 20.613-57.15 19.452c-15.666-1.162-46.417-9-58.892-16.549-12.474-7.839-26.11-4.935-47.287-8.71-21.177-3.774-63.823-21.193-74.557-27-10.733-5.806-25.239-4.935-37.713-7.839-12.475-2.903-29.01-2.903-45.546 7.84-16.536 10.741-45.547 29.032-62.953 34.838-17.406 5.807-45.546 19.742-66.724 17.71-21.178-2.032-29.88-13.645-73.396 10.452-43.516 24.097-77.458 31.065-87.902 41.516-10.734 10.742-42.645 27-60.052 24.097-17.406-2.903-49.317 3.484-63.822.29-14.506-3.193-52.22-11.032-68.755-4.064-16.536 6.678-31.041 13.645-34.813 13.645-3.771 0-23.208-15.387-42.645-16.548-19.437-.871-49.318 2.903-57.15 2.903-7.833 0-37.714.871-54.25.871s-37.714 0-48.447-5.806c-10.734-5.807-47.287-3.775-58.892-2.033-11.604 2.033-33.942 15.388-40.614 20.323-6.673 4.936-55.12 11.613-74.557 11.613-19.437 0-33.942-11.613-48.447 0-14.506 11.613-52.22 27-60.052 29.033-7.833 2.032-21.177 6.677-33.942 10.742 0 0-100.666-13.646-147.953-11.613-47.287 2.032-62.953-12.484-89.933-8.71-26.98 3.774-41.484 17.42-57.15 20.323-15.666 2.903-48.447 19.451-67.594 19.451-19.437 0-60.052 8.71-76.298 9.581-16.536.871-232.953 27-260.223 33.968-26.98 6.678-24.079 12.484-84.13 23.226-60.052 10.742-91.963 9.581-116.912 8.71-25.24-.87-110.24-2.613-133.448.58-23.209 3.194-77.458 19.743-116.042 14.807-38.584-4.935-100.666-9.58-130.547-12.484-29.88-2.903-145.922 6.678-164.489 6.678-18.277 0-51.348 5.516-65.854 6.677-14.505 1.162-84.13-12.484-92.833-17.42-8.703-4.935-31.041-2.032-51.348 2.033-20.308 4.065-105.308 16.258-119.814 15.387-14.505-.87-76.297 17.42-101.536 14.517-25.24-2.904-61.792-2.904-67.594-12.484-5.802-9.581-28.14-17.42-53.09-15.388-25.238 2.033-71.655-6.677-86.16-15.387-14.506-8.71-37.714-22.355-48.448-29.032-10.734-6.678-4.931-15.388-31.911-18.291-26.98-2.903-26.98-9.58-50.188-9.58-23.209 0-40.615 9.58-51.349 19.451-10.733 9.58-24.078 19.452-41.485 38.613-17.406 19.452-13.634 22.355-31.911 24.097-18.277 2.033-205.104 31.936-237.885 31.936-32.782 0-67.595 25.258-125.616 27-58.02 2.033-123.874 44.42-112.27 58.065 11.604 13.646 60.052 69.679 90.803 71.71 30.75 2.033 464.166 67.647 580.208 65.905 116.042-2.033 605.448 118.162 709.885 112.356 104.438-5.807 469.969 44.42 634.458 38.613 164.49-5.807 1023.198-.871 1143.01.58 119.814 1.452 707.855-25.548 767.906-25.548 60.052 0 298.808 7.839 298.808 7.839V989.485h.58z"/>
        <path fill="#2E7C77" d="M2440.727 1102.71s-81.22-48.07-101.524-58.267c-20.305-10.196-27.557-23.307-59.464-23.307-31.908 0-69.617 2.914-87.021 0-17.404-2.913-53.663-46.614-81.22-48.07-27.556-1.457-43.51 21.85-81.219 17.48-37.71-4.37-50.762 8.74-92.822 23.307-42.06 14.567-78.32 33.504-129.081 37.874-50.762 4.37-40.61-16.024-88.471 4.37-47.862 20.394-56.564 39.33-79.77 46.614-23.205 7.283-73.967 30.59-101.524 32.047-27.557 1.457-75.418 23.307-113.127 39.33-37.71 16.024-62.365 29.134-89.922 29.134-27.556 0-52.212 7.284-76.868 13.11-24.656 5.827-49.312 17.48-104.425 32.048-55.113 14.567-111.677 55.354-136.333 64.094-24.656 8.74-76.868 46.614-116.028 50.984-39.159 4.37-87.02 21.85-133.432 24.764-46.41 2.913-87.02 21.85-94.272 36.417-7.252 14.567 181.293 77.204 203.048 77.204 21.756 0 233.506 14.567 278.467 14.567 44.961 0 126.18 5.827 168.24 0 42.06-5.826 503.271-14.567 548.232-40.787 44.96-26.22 176.942 2.913 261.063-40.787 84.12-43.7 165.34-69.921 256.711-97.598 91.372-27.677 145.035-56.811 145.035-71.378s-52.213-136.929-65.266-142.755c-13.053-5.827-17.114-13.402-29.007-20.394zM-1324.82 1490.296c14.206-9.036 160.321-112.217 202.938-141.364 42.617-29.147 55.083-27.69 85.524-45.178 30.44-17.488 47.255-30.604 84.074-30.604 36.818 0 111.325-20.403 140.316-26.233 28.991-5.83 51.894-10.201 77.986-8.744 26.092 1.457 53.344-2.04 76.247-.292 22.903 1.75 93.061-8.452 114.515-23.026 21.453-14.573 73.347-29.147 103.788-30.604 30.44-1.458 51.894-10.202 64.07-10.202 12.176 0 33.63 14.574 47.255 14.574 13.626 0 41.168 4.372 57.983 2.915 16.814-1.458 53.343-14.574 77.986-17.489 24.642-2.914 28.12-14.573 38.848-14.573 10.726 0 41.167 5.246 48.125 5.246 6.958 0 28.99.583 32.18-1.457 3.189-2.332 26.092-16.906 32.18-17.488 6.088-.583 52.764 4.372 61.171 0 8.408-4.373 17.685-11.66 25.222-9.328 7.538 2.332 57.113 28.565 67.84 34.977 10.726 6.412 57.982 26.232 61.17 30.605 3.19 4.372 36.53 20.985 50.445 23.317 13.916 2.332 28.991 6.413 42.617 10.202 13.626 3.789 15.365 13.116 29.86 20.403 14.496 7.286 31.311 9.327 46.676 11.659 15.366 2.331 30.441 7.286 38.848 12.241 8.408 4.955 27.542 10.202 35.08 16.906 7.537 6.704 15.365 6.995 23.772 16.614 8.408 9.618 9.277 10.493 16.815 14.865 7.538 4.372 51.894 37.308 62.62 40.223 10.728 2.914 20.584 18.945 35.95 28.564 15.365 9.327 54.213 47.218 67.839 55.962 13.626 8.745 68.709 58.295 88.423 75.783s-32.18 43.72-35.08 51.007c-3.189 7.287-364.707 85.984-396.887 88.9-32.18 2.914-231.929 2.914-366.447-20.404-134.52-23.318-630.556-61.209-680.71-65.58-50.155-4.373-391.38-74.909-444.724-71.994-53.344 2.914-142.056-2.624-114.515-20.403z"/>
        <path fill="#186B65" d="M516.044 1413.719c7.26 0 76.66-2.322 130.38-23.51 53.429-21.187 121.377-31.926 135.606-33.667 14.228-1.742 35.716 0 67.948 15.963 32.232 15.963 128.638 57.177 176.84 71.399 48.203 14.221 83.92 42.955 130.38 48.18 46.46 5.223 76.66 7.255 92.92 19.735 15.971 12.48 21.489 24.96 39.202 40.924 17.713 15.963 35.716 42.955 53.43 60.66 17.712 17.704 62.43 87.071 89.145 103.324 26.715 16.254-28.457 51.953-57.204 50.212-28.457-1.742-83.92-21.478-237.53-40.924-153.61-19.736-369.65-67.916-416.11-98.1-46.46-30.476-205.297-87.362-234.045-99.842-28.457-12.48-99.89-64.143-71.433-80.396 29.038-16.254 100.47-33.958 100.47-33.958z"/>
        <path fill="#036C66" d="M3264 925s-52.22 11.606-59.474 11.606c-7.253 0-56.573 13.058-71.078 14.509-14.506 1.45-42.067 10.155-60.925 0-18.857-10.156-31.913-14.509-42.067-2.902-10.154 11.606-30.462 2.902-35.394 4.352-4.932 1.451-13.055 12.187-20.888 13.928-7.833 1.741-50.77 6.384-57.443 9.285-6.673 2.902-38.295 21.762-49.9 27.566-11.605 5.803-53.672 22.632-63.245 31.337-9.574 8.705-17.407 0-23.21 0-5.802 0-21.758-15.959-33.363-15.959s-11.605 6.384-25.53 11.026c-13.926 4.643-32.493 10.736-40.617 8.995-8.123-1.74-17.987 4.933-21.758 4.933-3.772 0-29.592-8.705-35.395-9.285-5.802-.58-40.616 11.606-46.418 13.928-5.802 2.321-13.926 8.705-22.63 8.705-8.703 0-23.209 11.606-32.492 14.508-9.284 2.901-26.69 11.026-35.394 11.026-8.704 0-27.561 18.86-35.395 18.86-7.833 0-45.838-5.803-67.307 0-21.468 5.804-31.332 12.187-46.418 12.187-15.086 0-41.197-1.45-55.122 0-13.926 1.45-35.394-10.156-59.474-10.156s-44.098-2.03-61.505 10.156c-17.407 12.187-33.363 29.016-36.264 30.467-2.901 1.45-12.185-5.803-19.728 0-7.543 5.803-14.506-8.705-17.987-7.254-3.482 1.45-34.814 24.664-44.098 29.016-9.284 4.353-34.814 13.928-43.517 15.96-8.704 2.03-31.333 12.186-41.197 20.31-9.864 8.125-41.197.58-55.702 3.482-14.506 2.902-24.66 19.731-39.166 29.597-14.506 9.865-22.63 21.762-37.135 22.632-14.506.87-36.264 15.089-42.937 16.83-6.673 1.74-27.561 10.155-49.9 10.155s-29.592-5.222-40.616 6.384c-11.025 11.606-37.715 26.115-47 26.695-9.283.58-17.406 4.352-26.11 12.187-8.703 7.834-37.715 29.016-50.77 34.82-13.055 5.802-63.245 38.3-76.88 40.622-13.636 2.321-84.715 36.27-95.159 42.073-10.444 5.803-49.32 34.82-70.208 34.82-20.888 0-75.43 26.114-88.486 26.114-13.055 0-43.517 14.508-53.671 14.508-10.154 0-101.54 21.762-126.2 31.918-24.66 10.156-71.08 50.778-84.134 50.778-13.056 0-145.058 105.91-169.718 113.163-24.66 7.254-121.85 71.09-137.806 79.795C651.213 1807.382 803.814 2379 803.814 2379H3264V925z"/>
        <path fill="url(#b)" d="M71 2382.72V1218s72.54 10.166 85.598 10.166c13.057 0 34.82 4.357 43.524 11.618 8.705 7.261 18.86 11.618 29.016 14.523 10.156 2.904 30.468 4.357 34.82 13.07 4.352 8.714 14.508 15.975 26.115 20.332 11.606 4.357 30.467 11.618 37.72 24.688 7.255 13.07 20.312 13.07 36.271 11.619 15.959-1.453 30.467-4.357 55.13 1.452 24.665 5.809 43.525 11.618 60.935 15.975 17.41 4.357 20.311 15.975 29.016 17.427 8.705 1.452 24.664 11.618 33.369 18.88 8.705 7.26 29.016 11.618 49.327 21.784 20.312 10.165 29.017 21.784 37.722 27.593 8.704 5.809 13.057 7.261 37.72 8.713 24.664 1.453 29.017 11.618 39.173 13.07 10.155 1.453 26.114 10.167 43.524 10.167s29.016 4.356 40.623 4.356c11.606 0 31.918-15.975 46.426-23.236 14.508-7.261 30.467-17.427 46.426-27.593 15.959-10.166 39.172-30.498 58.032-34.854 18.86-4.357 44.975-14.523 69.64-15.975 24.663-1.453 37.72-4.357 60.933 1.452s47.877 14.523 63.836 23.236c15.959 8.714 44.975 24.689 53.68 29.046 8.705 4.356 30.467 26.14 43.524 31.95 13.058 5.808 23.213 18.879 44.975 21.783 21.763 2.905 29.597 10.166 37.141 13.942 7.544 3.776 23.794 14.523 31.918 15.104 8.125.58 19.731 2.904 27.566 2.904 7.834 0 20.891-2.904 37.14-.58 16.25 2.323 34.24 13.07 44.975 15.974 10.736 2.905 15.96 13.07 23.213 13.07 7.255 0 34.82-3.485 43.525-2.904 8.705.581 25.534 10.166 39.172 13.07 13.637 2.905 29.596 10.167 47.006 11.038 17.41.871 31.918 1.452 49.328-1.452 17.41-2.905 30.467-5.81 40.042-12.2 9.575-6.39 32.498-21.783 43.524-26.721 11.027-4.938 28.436-21.784 37.722-25.56 9.285-3.776 26.114-4.357 42.073-15.975 15.959-11.618 29.016-13.07 39.172-18.008 10.156-4.938 25.534-10.166 36.27-13.942 10.736-3.776 38.882-6.97 56.292-24.398 17.41-17.427 46.426-23.236 53.68-28.464 7.254-5.229 18.86-3.486 25.534-2.324 6.674 1.162 15.959 8.133 23.213 11.037 7.254 2.905 11.026 11.037 16.83 11.037 5.803 0 5.222 7.262 8.704 9.295 3.482 2.033 12.187 13.07 26.115 14.523 13.928 1.452 52.81 12.199 56.582 15.103 3.772 2.905 26.695 15.975 31.337 19.751 4.643 3.776 24.664 8.714 34.82 13.942 10.155 5.228 20.311 11.037 32.498 13.07 12.187 2.033 20.892 5.228 26.695 9.295 5.803 4.066 13.928 6.39 19.73 9.294 5.804 2.905 10.157 8.714 13.929 11.037 3.772 2.324 15.088 8.714 19.73 11.619 4.643 2.904 15.09 7.261 33.37 14.522 18.28 7.262 15.088 16.847 29.596 20.332 14.508 3.486 26.115 15.104 31.918 17.427 5.803 2.324 14.508 9.295 23.793 12.2 9.285 2.904 20.311 9.294 28.436 10.165 8.125.872 20.311-4.357 27.565-5.809 7.254-1.452 12.187-8.133 20.892-8.133s26.695-2.904 31.338-6.39c4.642-3.485 17.41-1.452 29.016-7.26 11.606-5.81 29.596-17.428 45.846-17.428 16.249 0 52.229-6.39 68.188-2.324 15.959 4.067 29.016 4.357 42.073 13.07 13.058 8.714 46.426 27.594 60.934 33.403 14.508 5.809 11.026 11.037 30.467 11.037s21.763 8.714 34.82 15.104c13.057 6.39 20.311 15.103 42.944 15.103 22.633 0 17.41 3.486 37.14-4.357 19.732-7.842 44.105-15.974 56.582-15.103 12.477.871 24.664 5.228 33.369 1.452 8.705-3.776 7.254-15.975 29.016-17.427s30.467-.581 47.877-8.133c17.41-7.552 34.82-23.817 51.649-29.045 16.83-5.228 29.597-12.2 41.203-15.975 11.606-3.776 26.695-11.037 47.877-9.295 21.182 1.743 50.778 2.324 61.514 5.81 10.736 3.485 24.664 6.39 34.82 9.294 10.155 2.905 5.803 7.261 17.41 8.133 11.606.871 22.632-.581 36.27.58 13.637 1.162 27.565-3.485 40.042 2.324 12.477 5.81 23.793 8.714 29.016 15.975 5.223 7.262 6.384 16.846 12.187 17.427 5.803.581 18.86-.58 41.203 0 22.343.581 46.426 22.656 52.23 26.722 5.803 4.066 27.565 21.784 44.975 34.274 17.41 12.49 35.4 35.435 47.006 47.053 11.606 11.618 31.337 26.141 42.944 36.307 11.606 10.166 37.14 37.759 48.747 47.925 11.607 10.166 46.426 40.663 53.68 45.02 7.254 4.357 38.302 26.14 44.975 30.498 6.674 4.356 70.8 47.053 111.423 54.605 40.623 7.842 102.427 56.058 137.247 79.294 34.82 23.236 94.883 54.315 125.64 73.485 31.047 19.46 32.788 48.505 65.867 60.124 33.078 11.618 71.67 46.472 102.427 69.708 31.047 23.237 65.867 63.9 87.049 79.294 21.182 15.394 58.032 40.664 79.214 54.315C4606.528 2359.773 4628 2792 4628 2792H71v-409.28z" transform="translate(-1450)"/>
        <path fill="url(#c)" d="M3673 2615s-169.544-355.006-230.47-375.294c-60.927-20.288-197.286-63.762-223.398-66.66-26.111-2.898-107.346-26.084-147.964-34.78-40.618-8.694-98.643-26.084-145.063-40.575-46.42-14.491-43.52-23.186-101.545-26.084-58.025-2.899-133.458 20.288-176.977 26.084-43.519 5.797-58.025 20.288-95.741 5.797-37.717-14.492-81.236-20.868-147.965-32.171s-147.964-11.303-168.273-22.896c-20.309-11.593-66.73-23.186-89.94-23.186-23.21 0-84.136-23.187-110.247-34.78-26.112-11.593-135.49-28.982-159.28-37.677-23.5-8.695-139.55-107.236-183.07-118.829-43.518-11.593-130.556-69.558-185.68-89.846-55.124-20.288-113.15-53.908-139.261-75.355-26.111-21.737-87.038-95.643-107.347-98.541-20.309-2.898-81.235-46.952-110.248-52.459-29.012-5.506-208.89 2.609-226.298 0-17.408-2.608-87.038 21.737-130.557-2.028-43.52-23.766-124.755-46.952-136.36-55.647-11.605-8.695-84.136-107.236-95.741-115.93-11.605-8.695-124.755-72.457-139.261-84.05-14.506-11.593-84.137-28.983-104.445-43.474-20.31-14.491-69.63-31.881-101.545-40.576-31.914-8.695-69.34-9.564-101.544-20.288-43.519-14.491-43.519-10.144-43.519-10.144L0 2615h3673z" transform="translate(-1450)"/>
    </g>
</svg>
